<?xml version="1.0" encoding="UTF-8"?>
<CustomTab xmlns="http://soap.sforce.com/2006/04/metadata">
    <customObject>true</customObject>
    <icon>ccrz__CloudCraze/ccrz__ccrz_icon.png</icon>
    <mobileReady>false</mobileReady>
    <motif>Custom108: TV Widescreen</motif>
</CustomTab>
